{
  "project_info": {
    "project_number": "528139273014",
    "project_id": "depokbkolapps",
    "storage_bucket": "depokbkolapps.appspot.com"
  },
  "client": [
    {
      "client_info": {
        "mobilesdk_app_id": "1:528139273014:android:0aa6ab63a69768a0d72997",
        "android_client_info": {
          "package_name": "com.bkol"
        }
      },
      "oauth_client": [
        {
          "client_id": "528139273014-bg2rulr74e5kko4jp9gijj2b46a2ot41.apps.googleusercontent.com",
          "client_type": 3
        }
      ],
      "api_key": [
        {
          "current_key": "AIzaSyCIQqSrtZ_dl5XS7uD9FyQ5C0VgaCwVcm0"
        }
      ],
      "services": {
        "appinvite_service": {
          "other_platform_oauth_client": [
            {
              "client_id": "528139273014-bg2rulr74e5kko4jp9gijj2b46a2ot41.apps.googleusercontent.com",
              "client_type": 3
            }
          ]
        }
      }
    }
  ],
  "configuration_version": "1"
}